<?xml version="1.0" encoding="UTF-8" standalone="no"?>
<svg
   xmlns:dc="http://purl.org/dc/elements/1.1/"
   xmlns:cc="http://creativecommons.org/ns#"
   xmlns:rdf="http://www.w3.org/1999/02/22-rdf-syntax-ns#"
   xmlns:svg="http://www.w3.org/2000/svg"
   xmlns="http://www.w3.org/2000/svg"
   xmlns:sodipodi="http://sodipodi.sourceforge.net/DTD/sodipodi-0.dtd"
   xmlns:inkscape="http://www.inkscape.org/namespaces/inkscape"
   width="157.85001pt"
   height="43.439999pt"
   viewBox="0 0 157.85 43.439996"
   version="1.1"
   id="svg46"
   sodipodi:docname="t.svg"
   inkscape:version="0.92.4 5da689c313, 2019-01-14">
  <metadata
     id="metadata50">
    <rdf:RDF>
      <cc:Work
         rdf:about="">
        <dc:format>image/svg+xml</dc:format>
        <dc:type
           rdf:resource="http://purl.org/dc/dcmitype/StillImage" />
        <dc:title></dc:title>
      </cc:Work>
    </rdf:RDF>
  </metadata>
  <sodipodi:namedview
     pagecolor="#ffffff"
     bordercolor="#666666"
     borderopacity="1"
     objecttolerance="10"
     gridtolerance="10"
     guidetolerance="10"
     inkscape:pageopacity="0"
     inkscape:pageshadow="2"
     inkscape:window-width="1366"
     inkscape:window-height="738"
     id="namedview48"
     showgrid="false"
     inkscape:zoom="0.76286953"
     inkscape:cx="161.23334"
     inkscape:cy="56.960002"
     inkscape:window-x="0"
     inkscape:window-y="0"
     inkscape:window-maximized="1"
     inkscape:current-layer="svg46" />
  <defs
     id="defs17">
    <clipPath
       id="clip1">
      <path
         d="M 0,34 H 77 V 85.441406 H 0 Z m 0,0"
         id="path2"
         inkscape:connector-curvature="0" />
    </clipPath>
    <clipPath
       id="clip2">
      <path
         d="m 165,34 h 76.85156 V 85.441406 H 165 Z m 0,0"
         id="path5"
         inkscape:connector-curvature="0" />
    </clipPath>
    <clipPath
       id="clip3">
      <path
         d="m 3,79 h 7 v 6.441406 H 3 Z m 0,0"
         id="path8"
         inkscape:connector-curvature="0" />
    </clipPath>
    <clipPath
       id="clip4">
      <path
         d="m 221,31 h 20.85156 V 60 H 221 Z m 0,0"
         id="path11"
         inkscape:connector-curvature="0" />
    </clipPath>
    <clipPath
       id="clip5">
      <path
         d="m 233,63 h 8.85156 v 2 H 233 Z m 0,0"
         id="path14"
         inkscape:connector-curvature="0" />
    </clipPath>
  </defs>
  <g
     id="g888">
    <g
       transform="translate(0,-42.000023)"
       clip-path="url(#clip1)"
       id="g21"
       style="clip-rule:nonzero">
      <path
         style="fill:none;stroke:#000000;stroke-width:0.59776002;stroke-linecap:butt;stroke-linejoin:miter;stroke-miterlimit:10;stroke-opacity:1"
         d="M -6.25e-4,0.0019375 V 42.521469 L 63.780625,0.0019375 Z m 0,0"
         transform="matrix(1,0,0,-1,3.985,85.041)"
         id="path19"
         inkscape:connector-curvature="0" />
    </g>
    <g
       transform="translate(0,-42.000023)"
       clip-path="url(#clip3)"
       id="g29"
       style="clip-rule:nonzero">
      <path
         style="fill:none;stroke:#000000;stroke-width:0.79701;stroke-linecap:butt;stroke-linejoin:miter;stroke-miterlimit:10;stroke-opacity:1"
         d="M -6.25e-4,0.0019375 H 5.315781 V 5.314438 H -6.25e-4 Z m 0,0"
         transform="matrix(1,0,0,-1,3.985,85.041)"
         id="path27"
         inkscape:connector-curvature="0" />
    </g>
    <path
       style="fill:none;stroke:#000000;stroke-width:0.79701;stroke-linecap:butt;stroke-linejoin:miter;stroke-miterlimit:10;stroke-opacity:1"
       d="M 0,21.781227 H 7.96875"
       id="path31"
       inkscape:connector-curvature="0" />
    <path
       style="fill:none;stroke:#000000;stroke-width:0.79701;stroke-linecap:butt;stroke-linejoin:miter;stroke-miterlimit:10;stroke-opacity:1"
       d="m 39.496094,19.402321 -4.421875,6.632812 m 1.769531,-8.398437 -4.421875,6.628906"
       id="path33"
       inkscape:connector-curvature="0" />
  </g>
  <g
     id="g880"
     transform="translate(-83.999999)">
    <g
       transform="translate(0,-42.000023)"
       clip-path="url(#clip2)"
       id="g25"
       style="clip-rule:nonzero">
      <path
         style="fill:none;stroke:#000000;stroke-width:0.59776002;stroke-linecap:butt;stroke-linejoin:miter;stroke-miterlimit:10;stroke-opacity:1"
         d="M 233.89,42.525375 233.886,0.0019375 170.09303,42.525375 Z m 0,0"
         transform="matrix(1,0,0,-1,3.985,85.041)"
         id="path23"
         inkscape:connector-curvature="0" />
    </g>
    <g
       transform="translate(0,-42.000023)"
       clip-path="url(#clip4)"
       id="g37"
       style="clip-rule:nonzero">
      <path
         style="fill:none;stroke:#000000;stroke-width:0.79701;stroke-linecap:butt;stroke-linejoin:miter;stroke-miterlimit:10;stroke-opacity:1"
         d="m 233.89,42.525375 -5.30859,0.0039 v -5.316406 h 5.3125 z m 0,0"
         transform="matrix(1,0,0,-1,3.985,85.041)"
         id="path35"
         inkscape:connector-curvature="0" />
    </g>
    <g
       transform="translate(0,-42.000023)"
       clip-path="url(#clip5)"
       id="g41"
       style="clip-rule:nonzero">
      <path
         style="fill:none;stroke:#000000;stroke-width:0.79701;stroke-linecap:butt;stroke-linejoin:miter;stroke-miterlimit:10;stroke-opacity:1"
         d="m 237.87437,21.263656 h -7.97265"
         transform="matrix(1,0,0,-1,3.985,85.041)"
         id="path39"
         inkscape:connector-curvature="0" />
    </g>
    <path
       style="fill:none;stroke:#000000;stroke-width:0.79701;stroke-linecap:butt;stroke-linejoin:miter;stroke-miterlimit:10;stroke-opacity:1"
       d="m 202.35547,24.152321 4.42187,-6.628907 m -1.76953,8.398438 4.42188,-6.632813"
       id="path43"
       inkscape:connector-curvature="0" />
  </g>
</svg>
